[
    {
        "id": "1",
        "name": "Basel",
        "score": null,
        "coordinate": {
            "type": "WGS84",
            "x": 47.547408,
            "y": 7.589547
        },
        "distance": null
    },
    {
        "id": "2",
        "name": "Laussane",
        "score": null,
        "coordinate": {
            "type": "WGS84",
            "x": 47.547408,
            "y": 7.589547
        },
        "distance": null
    },
    {
        "id": "3",
        "name": "Zurich",
        "score": null,
        "coordinate": {
            "type": "WGS84",
            "x": 47.547408,
            "y": 7.589547
        },
        "distance": null
    },
    {
        "id": "4",
        "name": "Basel",
        "score": null,
        "coordinate": {
            "type": "WGS84",
            "x": 47.547408,
            "y": 7.589547
        },
        "distance": null
    },
    {
        "id": "5",
        "name": "Bern",
        "score": null,
        "coordinate": {
            "type": "WGS84",
            "x": 47.547408,
            "y": 7.589547
        },
        "distance": null
    }

]
  